<?xml version="1.0" encoding="UTF-8" standalone="no"?>
<svg
   xmlns:dc="http://purl.org/dc/elements/1.1/"
   xmlns:cc="http://creativecommons.org/ns#"
   xmlns:rdf="http://www.w3.org/1999/02/22-rdf-syntax-ns#"
   xmlns:svg="http://www.w3.org/2000/svg"
   xmlns="http://www.w3.org/2000/svg"
   id="svg8"
   version="1.1"
   viewBox="0 0 149.85118 115.83333"
   height="115.83333mm"
   width="149.85118mm">
  <defs
     id="defs2" />
  <metadata
     id="metadata5">
    <rdf:RDF>
      <cc:Work
         rdf:about="">
        <dc:format>image/svg+xml</dc:format>
        <dc:type
           rdf:resource="http://purl.org/dc/dcmitype/StillImage" />
        <dc:title></dc:title>
      </cc:Work>
    </rdf:RDF>
  </metadata>
  <g
     transform="translate(-18.736923,-36.941666)"
     id="layer1">
    <rect
       y="41.941647"
       x="23.736923"
       height="105.83334"
       width="139.85118"
       id="rect826-3"
       style="opacity:1;fill:#0e9fcd;fill-opacity:1;stroke:none;stroke-width:10;stroke-linecap:butt;stroke-linejoin:miter;stroke-miterlimit:4;stroke-dasharray:none;stroke-dashoffset:0;stroke-opacity:1" />
    <circle
       r="10.205358"
       cy="108.95683"
       cx="46.113094"
       id="path853"
       style="opacity:1;fill:#ffb92b;fill-opacity:1;stroke:none;stroke-width:10;stroke-linecap:butt;stroke-linejoin:miter;stroke-miterlimit:4;stroke-dasharray:none;stroke-dashoffset:0;stroke-opacity:1" />
    <path
       id="path851"
       d="M 23.547935,113.62485 H 164.15507 v 34.15014 H 23.736923 Z"
       style="fill:#0d308f;fill-opacity:1;stroke:none;stroke-width:0.26458332px;stroke-linecap:butt;stroke-linejoin:miter;stroke-opacity:1" />
    <path
       id="path845"
       d="m 71.059523,149.2869 c 0,0 15.106621,-7.84197 28.458922,-14.25363 13.352305,-6.41166 31.317575,-11.1755 45.177645,-10.93839 13.86008,0.23712 19.64795,-0.58595 19.64795,-0.58595 v 25.77797 z"
       style="fill:#d1320d;fill-opacity:1;stroke:none;stroke-width:0.26458332px;stroke-linecap:butt;stroke-linejoin:miter;stroke-opacity:1" />
    <path
       id="path849"
       d="m 104.32142,40.732143 c -15.119039,12.85119 -7.748504,26.64732 -7.748504,26.64732 4.758434,7.686697 6.350344,20.770269 23.056544,20.032739 6.25473,-0.276128 41.51585,8.565996 44.60119,5.480655 l -0.64255,-50.95121 z"
       style="fill:#ede339;fill-opacity:1;stroke:none;stroke-width:0.26458332px;stroke-linecap:butt;stroke-linejoin:miter;stroke-opacity:1" />
    <path
       id="path847"
       d="m 121.33036,132.39137 c 10.9613,-9.44941 14.74107,-90.525299 14.74107,-90.525299 l 13.79613,0.188989 c -0.025,4.358817 0.21976,7.90817 -0.75596,15.119045 5.96434,-4.14783 10.2733,-6.425693 15.68602,-9.071428 l 0.37798,7.181548 c 0,0 -10.01638,3.401786 -13.79614,11.717262 -3.77976,8.315476 -8.93239,43.565113 -8.50446,54.239583 0.0959,2.39259 -0.32558,7.24444 3.40178,9.63839 -5.27938,-1.20896 -10.83259,1.48358 -18.699,2.53758 -3.11001,0.41671 -6.12016,-1.5347 -6.24742,-1.02567 z"
       style="fill:#2f1c03;fill-opacity:1;stroke:none;stroke-width:0.26458332px;stroke-linecap:butt;stroke-linejoin:miter;stroke-opacity:1" />
    <rect
       y="41.941666"
       x="23.736923"
       height="105.83333"
       width="139.85118"
       id="rect826"
       style="opacity:1;fill:none;fill-opacity:1;stroke:#b1640c;stroke-width:10;stroke-linecap:butt;stroke-linejoin:miter;stroke-miterlimit:4;stroke-dasharray:none;stroke-dashoffset:0;stroke-opacity:1" />
  </g>
</svg>
